{
  "type": "service_account",
  "project_id": "montana-191907",
  "private_key_id": "0166190ad33aefb609a59eb9fbe30fad3837d50a",
  "private_key": "-----BEGIN PRIVATE KEY-----\nMIIEvQIBADANBgkqhkiG9w0BAQEFAASCBKcwggSjAgEAAoIBAQDW5cOzWb2hSxxm\nQleahhS9ReYHWwhANDIzLQGHv1XKLaZUou3UTbpLiXCYzwdRUwjulMHEwx+Ss9cQ\nnQ0kZxkF/G49IFM23nNnQ53TVnKri0nV3NDyBz9Lh925fTPDbf8NCrVXCC/DopEu\nx/czu1ZhgRZfhTDv0ECPAWv91zDT+hceTdubTrkLeN7IXlZ8O4VHaTfK9maarzoN\nup2AwXL7AzPivve3/y1Uwf6ipu9dxJs30LXCYbXBkoHAQjEpDY24XL9wn8YiqQCx\ne0dLy3+jFsv0sebelJpvipGEpZiLcGCUUxpSu/xNezmm7pSEUVMd/pD9wuF0vn2A\nPyxng10LAgMBAAECggEAAb1RZLnEvbIAdFl0IRWVxGR09LlJa0+g2mYyXXlwhdbx\nwjyhZTcN23+s0CfY3NEpwNimauPTdRoMkx9aVGGbQ7+j2s3QrqCFWaAj/mp0OixB\n+D+110e0vPVIF7DKQvo4dtAP4Lj5vgEqYLEQsLQDAn4LgtFusHpEk4PE7oSX6hdX\n3WUgK45Hay+8LelIQ7yNPKDE1vIKFBtOdXERUfhhWPxX/sdk9z+OWNmUlTm6Sa6x\nzAaU5g2AZsW14eRw/UGtYDJjQUBPakQ9VPRUJ6/QsRkgjNVjhlUcvDyW+Q+eTg49\nQfRItVM/BSCwNlNSmZhXCrnGT5KVU9JiS+Y5Uln2yQKBgQDtW5MSn1L5GeNIfO9U\nQrIpHXRKasqr09FmN9M1vKLncmD6ySTLXpnp9VzmNTuNsxKuV3wrKGEfqnc2zgEb\nZdeT5ieIcpDw8NpveV89B6JAZj4OTrEs1sCdAuZhJ020ze1e/kuj4kYbpiNMGAg0\nnhwYLwC17L492YezDzDBtkyC6QKBgQDnxphAFwgRRbesLkHN24Z6PMYiWq4Cm7uI\nrVsYH/Nxijr2sDchLm/VZLz0VC0f1xlx9SOZA32XpaZwDdhtAtQxYG/encFNExbn\ngSPzGIDkEzE4PRMh6pEfRtg0ZMdtL9ulkHWmZtTGp/d+FE/ZyUh3dq43EY1Auf7/\nYw1YUYdf0wKBgQCb3mAFgaT+OjbcGlccETRn9ZSxbdGr5syDALPtfPPJY342EjLc\nbkJKtjsMXfa+xdLFtGOw/7JQFiR1U/C8KjPYRvK9EucFolT/kUeujz3IZpvnz1tg\nI6KXORlKwYGw8u4nTH0loOkDLSXOyZVR4GZ4px0jWtVPTnNjbd1JyEoUSQKBgBqC\nlJeACuQu3TtMbypkmZURrnfvd0fFGEYhzfGMdgPek6/zp9qbvR7jTtmDZ0XlDHwE\nVfYCeDMIN2lJrB+L20lqhmEoGhv+uvfvxXTgsJ1ltJOCKNYQRlkVeVVE0aqjdrQR\nOeO2j0/Jln1NRXTbmPZRFMwnrchhfdEoOzaG3L0RAoGAeZYrD6ho7DWcabLBCwdB\n7A6KiURD7sVuMHh5mQaepCup+IzRxr8i39UxAtClHI/Fz61laG3nTxWQ9G5uCT7c\nAvNUtqS1AmaQop8CIJnSGYQo/VPJ8QfOJA+fEZWn14+A21NTzATGNAjD8SVF94dc\nhKiA1CuFguIxzQrNYPyg40w=\n-----END PRIVATE KEY-----\n",
  "client_email": "montana-191907@appspot.gserviceaccount.com",
  "client_id": "111133652496747082836",
  "auth_uri": "https://accounts.google.com/o/oauth2/auth",
  "token_uri": "https://accounts.google.com/o/oauth2/token",
  "auth_provider_x509_cert_url": "https://www.googleapis.com/oauth2/v1/certs",
  "client_x509_cert_url": "https://www.googleapis.com/robot/v1/metadata/x509/montana-191907%40appspot.gserviceaccount.com"
}
